1,"01010101","No existe en el catálogo","Opcional","Opcional","Público en general"
2,10101500,"Animales vivos de granja","Opcional","Opcional",
3,10101501,"Gatos vivos","Opcional","Opcional",
4,10101502,"Perros","Opcional","Opcional",
5,10101504,"Visón","Opcional","Opcional",
6,10101505,"Ratas","Opcional","Opcional",
7,10101506,"Caballos","Opcional","Opcional","Equinos, Potrancas, Potras, Potrillos, Potros, Yeguas"
8,10101507,"Ovejas","Opcional","Opcional","Borregos, Carneros"
9,10101508,"Cabras","Opcional","Opcional","Borregos cimarrones, Cabritos, Cabros, Carnero de las Rocosas, Chivas, Chivatos, Chivos, Irascos, Machos cabríos, Chivos"
10,10101509,"Asnos","Opcional","Opcional","Borricos, Burros"
11,10101510,"Ratones","Opcional","Opcional",
12,10101511,"Cerdos","Opcional","Opcional","Cerdo montés, Chanchos, Chanchos almizcleros, Chanchos de monte, Cochinillos, Cochinos, Cochinos de monte, Cuche, Cuinos, Gorrinos, Jabalíes americanos, Lechones, Cochinos de monte, Pecaríes, Porcinos, Puercos, Puercos de monte, Tayatos"
13,10101512,"Conejos","Opcional","Opcional","Liebres"
14,10101513,"Cobayas o conejillos de indias","Opcional","Opcional","Chanchito de Indias, Cobayos, Cuilo, Cuyo"
15,10101514,"Primates","Opcional","Opcional","Changos, Chimpancés, Gorilas, Lémures, Macacos, Micos, Monos, Orangutanes, Simios, Monos"
16,10101515,"Armadillos","Opcional","Opcional","Toches"
17,10101516,"Ganado vacuno","Opcional","Opcional","Bueyes, Búfalos, Cebús, Otros vacunos o bovinos, Toros, Vacas"
18,10101517,"Camellos","Opcional","Opcional","Dromedarios"
19,10101600,"Pájaros y aves de corral vivos","Opcional","Opcional",
20,10101601,"Pollos vivos","Opcional","Opcional","Gallinas, Gallinas de guinea, Gallos, Pintadas, Pollitos"
21,10101602,"Patos vivos","Opcional","Opcional",
22,10101603,"Pavos vivos","Opcional","Opcional","Gallipavos, Guajolotes, Pavos salvajes"
23,10101604,"Gansos vivos","Opcional","Opcional",
24,10101605,"Faisanes vivos","Opcional","Opcional",
25,10101700,"Peces vivos","Opcional","Opcional",
26,10101701,"Salmones vivos","Opcional","Opcional",
27,10101702,"Trucha viva","Opcional","Opcional",
28,10101703,"Tilapia viva","Opcional","Opcional","Mojarra"
29,10101704,"Carpa viva","Opcional","Opcional",
30,10101705,"Anguilas vivas","Opcional","Opcional",
